{
    "PlayerSystemInfo": {
        "OperatingSystem": "",
        "DeviceModel": "",
        "DeviceName": "",
        "ProcessorType": "",
        "ProcessorCount": 0,
        "GraphicsDeviceName": "",
        "SystemMemorySize": 0,
        "XrModel": "",
        "XrDevice": ""
    },
    "EditorVersion": {
        "FullVersion": "2020.1.0a25 (301553012d38)",
        "DateSeconds": 1582347088,
        "Branch": "2020.1/staging",
        "RevisionValue": 3151187
    },
    "BuildSettings": {
        "Platform": "",
        "BuildTarget": "StandaloneWindows64",
        "DevelopmentPlayer": false,
        "AndroidBuildSystem": "Gradle"
    },
    "ScreenSettings": {
        "ScreenWidth": 0,
        "ScreenHeight": 0,
        "ScreenRefreshRate": 0,
        "Fullscreen": false
    },
    "QualitySettings": {
        "Vsync": 0,
        "AntiAliasing": 0,
        "ColorSpace": "",
        "AnisotropicFiltering": "",
        "BlendWeights": ""
    },
    "PlayerSettings": {
        "ScriptingBackend": "Mono2x",
        "VrSupported": false,
        "MtRendering": true,
        "GraphicsJobs": false,
        "GpuSkinning": false,
        "GraphicsApi": "Direct3D11",
        "Batchmode": "False",
        "StereoRenderingPath": "MultiPass",
        "RenderThreadingMode": "MultiThreaded",
        "AndroidMinimumSdkVersion": "AndroidApiLevel19",
        "AndroidTargetSdkVersion": "AndroidApiLevelAuto",
        "EnabledXrTargets": [],
        "ScriptingRuntimeVersion": ""
    },
    "TestSuite": "",
    "StartTime": 1595063701876.2087,
    "EndTime": 0.0,
    "Results": []
}